Examen parcial - Otoño 2020
…
R. En esta 2da gráfica se concluye que las ocupaciones que en general tienen un menor proporcion de educación son “SE-Profesional” y “Teacher”, aunque tienen mayor educación en E4. De igual manera en general las ocupaciones que tienen en promedio mayor participación son “SE-business” y “Salary-employed”, pero justamente tienen menor proporción de eduación alta (E4)

Mini-proyecto (75 % + 5%)

Utilizaremos los datos de un experimento de modificación del tiempo (weather) en el cual se investigó el efecto de yoduro de plata (IAg) para atenuar tormentas eléctricas Baughman et al 1976

Los datos se generaron seleccionando al azar tormentas candidato en donde se incorporó el aerosol (seeding) de manera aleatoria. Es decir, una vez seleccionando una posible tormenta, se decidió al azar si rociar o no las nubes con el aerosol mencionado.

Los resultados se pueden cargar de la siguiente tabla. Las columnas son la fecha en la que ocurrió la tormenta, el número de truenos que hicieron contacto con tierra, y el indicador si la tormenta fue tratada con aerosoles o no. Previo a la recolección de datos se espera que el yoduro de plata disminuya el número de truenos que impacten la tierra.

#Lectura de los datos
truenos <- read_csv('./datos/tormentas.csv')
truenos

## # A tibble: 23 x 3
##    fecha      conteos aerosol
##    <date>       <dbl> <chr>  
##  1 1965-08-19       0 No     
##  2 1966-07-15       2 Si     
##  3 1965-07-21       4 Si     
##  4 1966-07-14       9 Si     
##  5 1966-08-29      10 Si     
##  6 1966-08-04      10 No     
##  7 1966-07-14      12 Si     
##  8 1966-07-14      16 Si     
##  9 1965-07-29      18 Si     
## 10 1966-09-07      20 No     
## # … with 13 more rows
…
R. De acuerdo con el apoyo visual de las gráficas concluiríamos que no sería razonable utilizar un supuesto de normalidad, principalmente por el problema de los datos aberrantes que tenemos y porque en el centro la gráfica de cuantiles los puntos no se apegan mucho a la línea recta. De igual manera, el histograma parece tener una forma guassiana, pero tiene un comportamiento extraño entre los valores 50 y 70 de esta variable. 

Probablemente si utilizaramos alguna otra herramienta numérica que nos ayude a determinar si se distribuye normalmente se podría cambiar de opinión dependiendo que tan conservadores seamos 

Posiblemente estén tentados a descartar los valores atípicos. Claramente tenemos un problema. Si quisiéramos hacer una prueba de hipótesis por medio de diferencias en media, dicho valor atípico sesgaría nuestra distribución de referencia. Y el efecto sería catastrófico, valores grandes de nuestro estimador de prueba se verían como datos usuales bajo la distribución de referencias.

Una alternativa para estos casos, que no vimos en clase, es hacer un prueba de diferencia en suma de órdenes (sum of ranks). Para esto ordenamos los datos por la variable conteos y asignamos una variable orden que asigna el lugar que dicho registro recibe.

truenos <- truenos %>% 
  arrange(conteos) %>% 
  mutate(orden = min_rank(conteos))

truenos

## # A tibble: 23 x 4
##    fecha      conteos aerosol orden
##    <date>       <dbl> <chr>   <int>
##  1 1965-08-19       0 No          1
##  2 1966-07-15       2 Si          2
##  3 1965-07-21       4 Si          3
##  4 1966-07-14       9 Si          4
##  5 1966-08-29      10 Si          5
##  6 1966-08-04      10 No          5
##  7 1966-07-14      12 Si          7
##  8 1966-07-14      16 Si          8
##  9 1965-07-29      18 Si          9
## 10 1966-09-07      20 No         10
## # … with 13 more rows
…
